{
  "project_info": {
    "project_number": "386435963566",
    "firebase_url": "https://chatbot-14c6a.firebaseio.com",
    "project_id": "chatbot-14c6a",
    "storage_bucket": "chatbot-14c6a.appspot.com"
  },
  "client": [
    {
      "client_info": {
        "mobilesdk_app_id": "1:386435963566:android:d188d503bedbe9e109eb3f",
        "android_client_info": {
          "package_name": "com.example.chatbot"
        }
      },
      "oauth_client": [
        {
          "client_id": "386435963566-f6187onld3gfqqp2q70omvuqgi3975i6.apps.googleusercontent.com",
          "client_type": 3
        }
      ],
      "api_key": [
        {
          "current_key": "AIzaSyAybiDWJ1-fpcff11Nyn6W3fUrUNwNhQ4U"
        }
      ],
      "services": {
        "appinvite_service": {
          "other_platform_oauth_client": [
            {
              "client_id": "386435963566-f6187onld3gfqqp2q70omvuqgi3975i6.apps.googleusercontent.com",
              "client_type": 3
            }
          ]
        }
      }
    }
  ],
  "configuration_version": "1"
}